{
  "productosView": {
    "content": [
      {
        "id": 1,
        "nombre": "Notebook Lenovo",
        "precioCosto": 500,
        "precioVenta": 750,
        "stock": 10,
        "nombreProveedor": "Proveedor X",
        "nombreCategoria": "Electrónica",
        "nombreMarca": "Marca B"
      },
      {
        "id": 2,
        "nombre": "Mouse Logitech",
        "precioCosto": 10,
        "precioVenta": 20,
        "stock": 50,
        "nombreProveedor": "Proveedor X",
        "nombreCategoria": "Accesorios",
        "nombreMarca": "Marca B"
      }
    ],
    "totalElements": 15,
    "totalPages": 8,
    "number": 0
  },
  "productosRequest": {
    "content": [
      {
        "id": 1,
        "nombre": "Bici Montaña",
        "stock": 10,
        "precioCosto": 100,
        "precioVenta": 150,
        "proveedorid": 1,
        "categoriaid": 1,
        "marcaid": 1
      },
      {
        "id": 2,
        "nombre": "Casco",
        "stock": 2,
        "precioCosto": 20,
        "precioVenta": 40,
        "proveedorid": 1,
        "categoriaid": 2,
        "marcaid": 2
      }
    ],
    "totalElements": 4,
    "totalPages": 2,
    "number": 0
  },
  "ventas": {
    "content": [
      {
        "id": "V-001",
        "nombreCliente": "Juan Perez",
        "total": 190,
        "fechaVenta": "2026-03-20",
        "formaPago": "Efectivo",
        "Productos": [
          {
            "id": "2",
            "Nombre": "Mouse Logitech",
            "Cantidad": 2,
            "PrecioVenta": 20
          },
          {
            "id": "3",
            "Nombre": "Teclado Redragon",
            "Cantidad": 1,
            "PrecioVenta": 45
          },
          {
            "id": "15",
            "Nombre": "Parlantes Genius",
            "Cantidad": 3,
            "PrecioVenta": 30
          }
        ]
      },
      {
        "id": "V-002",
        "NombreCliente": "Maria Gomez",
        "PrecioTotal": 410,
        "Fecha": "2026-03-21",
        "FormaDePago": "Tarjeta",
        "Productos": [
          {
            "id": "1",
            "Nombre": "Notebook Lenovo",
            "Cantidad": 1,
            "PrecioVenta": 750
          },
          {
            "id": "13",
            "Nombre": "Webcam Logitech HD",
            "Cantidad": 1,
            "PrecioVenta": 40
          }
        ]
      }
    ],
    "totalElements": 2,
    "totalPages": 1,
    "number": 0
  },
  "compra": {
    "content": [
      {
        "id": "C-001",
        "PrecioTotal": 520,
        "NombreProveedor": "TechSupplier",
        "Fecha": "2026-03-20",
        "Producto": [
          {
            "id": "4",
            "Nombre": "Monitor Samsung 24\"",
            "Cantidad": 2,
            "Precio": 120
          },
          {
            "id": "8",
            "Nombre": "Disco SSD Kingston 480GB",
            "Cantidad": 4,
            "Precio": 35
          },
          {
            "id": "9",
            "Nombre": "Memoria RAM Corsair 8GB",
            "Cantidad": 2,
            "Precio": 30
          }
        ]
      },
      {
        "id": "C-002",
        "PrecioTotal": 400,
        "NombreProveedor": "AudioTech",
        "Fecha": "2026-03-21",
        "Producto": [
          {
            "id": "5",
            "Nombre": "Auriculares Sony",
            "Cantidad": 5,
            "Precio": 40
          },
          {
            "id": "15",
            "Nombre": "Parlantes Genius",
            "Cantidad": 10,
            "Precio": 20
          }
        ]
      }
    ],
    "totalElements": 2,
    "totalPages": 1,
    "number": 0
  },
  "categoria": {
    "content": [
      {
        "id": 1,
        "nombre": "Bicicletas"
      },
      {
        "id": 2,
        "nombre": "Accesorios"
      },
      {
        "id": 3,
        "nombre": "Componentes"
      },
      {
        "id": 4,
        "nombre": "Herramientas"
      },
      {
        "id": 5,
        "nombre": "Muebles"
      },
      {
        "id": 6,
        "nombre": "Redes"
      },
      {
        "id": 7,
        "nombre": "Audio"
      },
      {
        "id": 8,
        "nombre": "Oficina"
      },
      {
        "id": 9,
        "nombre": "Electrónica"
      }
    ],
    "totalElements": 9,
    "totalPages": 3,
    "number": 0
  },
  "marca": {
    "content": [
      {
        "id": 1,
        "nombre": "Marca A"
      },
      {
        "id": 2,
        "nombre": "Marca B"
      },
      {
        "id": 3,
        "nombre": "Marca C"
      }
    ],
    "totalElements": 9,
    "totalPages": 3,
    "number": 0
  },
  "proveedor": {
    "content": [
      {
        "id": 1,
        "nombre": "Proveedor X"
      },
      {
        "id": 2,
        "nombre": "Proveedor Y"
      },
      {
        "id": 3,
        "nombre": "Proveedor Z"
      }
    ],
    "totalElements": 9,
    "totalPages": 3,
    "number": 0
  },
  "reparaciones": {
    "content": [
      {
        "id": 1,
        "estadoReparacion": "EN_REPARACION",
        "valorTotal": 15000,
        "valorManoDeObra": 5000,
        "fechaConfirmada": "2026-03-20",
        "detalle": [
          {
            "id": 1,
            "nombreProducto": "Pantalla Samsung",
            "valorVenta": 10000,
            "cantidad": 1
          }
        ]
      }
    ],
    "totalElements": 1,
    "totalPages": 1,
    "number": 0
  }
}